[
  {
    "element-6066-11e4-a52e-4f735466cecf": "f6def4c0-8759-4b22-8244-400c89c4c460"
  },
  {
    "element-6066-11e4-a52e-4f735466cecf": "baaa2003-5f8c-40d7-aaf0-ba67848e501e"
  },
  {
    "element-6066-11e4-a52e-4f735466cecf": "35956ca3-e192-4758-8f1a-f0c6f2b96ec6"
  },
  {
    "element-6066-11e4-a52e-4f735466cecf": "e52e5b97-22c3-462f-a6a3-38a690a9c54d"
  },
  {
    "element-6066-11e4-a52e-4f735466cecf": "95b8c6a2-1f36-4d73-ba74-3dea2b67cb6f"
  },
  {
    "element-6066-11e4-a52e-4f735466cecf": "8173940a-ec09-4cff-905e-bfa8be0ea6bc"
  },
  {
    "element-6066-11e4-a52e-4f735466cecf": "fc94f202-a177-4c87-8b28-863d2fcfeee1"
  },
  {
    "element-6066-11e4-a52e-4f735466cecf": "40f630cf-9b48-46f1-a3bf-b5f93316f839"
  },
  {
    "element-6066-11e4-a52e-4f735466cecf": "cb70ccee-076e-468e-b3e4-5876082708b2"
  },
  {
    "element-6066-11e4-a52e-4f735466cecf": "69f5f66e-9776-4248-b094-abd890220b77"
  },
  {
    "element-6066-11e4-a52e-4f735466cecf": "8a9d9241-b4ff-4706-93cf-04eb86964745"
  },
  {
    "element-6066-11e4-a52e-4f735466cecf": "cd233b2d-0cf4-4c4b-93bd-473c49090524"
  }
]